<?xml version="1.0" encoding="UTF-8" standalone="no"?>
<!-- Created with Inkscape (http://www.inkscape.org/) -->

<svg
   xmlns:dc="http://purl.org/dc/elements/1.1/"
   xmlns:cc="http://creativecommons.org/ns#"
   xmlns:rdf="http://www.w3.org/1999/02/22-rdf-syntax-ns#"
   xmlns:svg="http://www.w3.org/2000/svg"
   xmlns="http://www.w3.org/2000/svg"
   xmlns:sodipodi="http://sodipodi.sourceforge.net/DTD/sodipodi-0.dtd"
   xmlns:inkscape="http://www.inkscape.org/namespaces/inkscape"
   width="146.20732mm"
   height="61.076786mm"
   viewBox="0 0 146.20732 61.076786"
   version="1.1"
   id="svg877"
   inkscape:version="0.92.5 (2060ec1f9f, 2020-04-08)"
   sodipodi:docname="report-ranger-logo.svg">
  <defs
     id="defs871" />
  <sodipodi:namedview
     id="base"
     pagecolor="#ffffff"
     bordercolor="#666666"
     borderopacity="1.0"
     inkscape:pageopacity="0.0"
     inkscape:pageshadow="2"
     inkscape:zoom="1.979899"
     inkscape:cx="683.79117"
     inkscape:cy="74.419582"
     inkscape:document-units="mm"
     inkscape:current-layer="layer1"
     showgrid="false"
     fit-margin-top="0"
     fit-margin-left="0"
     fit-margin-right="0"
     fit-margin-bottom="0"
     inkscape:window-width="3840"
     inkscape:window-height="2066"
     inkscape:window-x="-11"
     inkscape:window-y="-11"
     inkscape:window-maximized="1" />
  <metadata
     id="metadata874">
    <rdf:RDF>
      <cc:Work
         rdf:about="">
        <dc:format>image/svg+xml</dc:format>
        <dc:type
           rdf:resource="http://purl.org/dc/dcmitype/StillImage" />
        <dc:title></dc:title>
      </cc:Work>
    </rdf:RDF>
  </metadata>
  <g
     inkscape:label="Layer 1"
     inkscape:groupmode="layer"
     id="layer1"
     transform="translate(138.87152,-16.241366)">
    <rect
       style="fill:#3649c6;fill-opacity:0.50196078;stroke:none;stroke-width:0.41456676;stroke-miterlimit:4;stroke-dasharray:none;stroke-opacity:0.50196078"
       id="rect848"
       width="50.705971"
       height="36.560143"
       x="-127.26994"
       y="39.628918"
       transform="matrix(0.98942876,0.14501974,-0.16993227,0.98545574,0,0)" />
    <rect
       style="fill:#3649c6;fill-opacity:0.50196078;stroke:none;stroke-width:0.41439882;stroke-miterlimit:4;stroke-dasharray:none;stroke-opacity:0.50196078"
       id="rect848-9"
       width="48.632549"
       height="38.087997"
       x="-43.369858"
       y="81.679153"
       transform="matrix(0.62946878,0.77702577,-0.79130062,0.61142729,0,0)" />
    <text
       xml:space="preserve"
       style="font-style:normal;font-weight:normal;font-size:22.83581734px;line-height:0.89999998;font-family:sans-serif;letter-spacing:0px;word-spacing:0px;fill:#000000;fill-opacity:1;stroke:none;stroke-width:0.57089543"
       x="-62.676945"
       y="44.173737"
       id="text867"><tspan
         sodipodi:role="line"
         id="tspan865"
         x="-62.676945"
         y="44.173737"
         style="font-style:normal;font-variant:normal;font-weight:normal;font-stretch:normal;line-height:0.89999998;font-family:Calibri;-inkscape-font-specification:Calibri;stroke-width:0.57089543">Report</tspan><tspan
         sodipodi:role="line"
         x="-62.676945"
         y="65.578438"
         style="font-style:normal;font-variant:normal;font-weight:normal;font-stretch:normal;line-height:0.89999998;font-family:Calibri;-inkscape-font-specification:Calibri;stroke-width:0.57089543"
         id="tspan869"> Ranger</tspan></text>
  </g>
</svg>
